%YAML 1.1
%TAG !u! tag:unity3d.com,2011:
--- !u!114 &11400000
MonoBehaviour:
  m_ObjectHideFlags: 0
  m_CorrespondingSourceObject: {fileID: 0}
  m_PrefabInstance: {fileID: 0}
  m_PrefabAsset: {fileID: 0}
  m_GameObject: {fileID: 0}
  m_Enabled: 1
  m_EditorHideFlags: 0
  m_Script: {fileID: 11500000, guid: faf7db05d259ffb47b2b158a2e462d2a, type: 3}
  m_Name: ColorPalette-Default
  m_EditorClassIdentifier: 
  current: {r: 1, g: 1, b: 1, a: 1}
  colors:
  - {r: 1, g: 1, b: 1, a: 1}
  - {r: 0.866, g: 0.866, b: 0.866, a: 1}
  - {r: 0.733, g: 0.733, b: 0.733, a: 1}
  - {r: 0.6, g: 0.6, b: 0.6, a: 1}
  - {r: 0.466, g: 0.466, b: 0.466, a: 1}
  - {r: 0.333, g: 0.333, b: 0.333, a: 1}
  - {r: 0.2, g: 0.2, b: 0.2, a: 1}
  - {r: 0, g: 0, b: 0, a: 1}
  - {r: 1, g: 0, b: 0, a: 1}
  - {r: 0, g: 1, b: 0, a: 1}
  - {r: 0, g: 0, b: 1, a: 1}
  - {r: 0.09, g: 0.27, b: 0.607, a: 1}
  - {r: 0.929, g: 0.929, b: 0, a: 1}
  - {r: 0.247, g: 0.8, b: 0, a: 1}
  - {r: 0.827, g: 0, b: 0, a: 1}
  - {r: 0.929, g: 0.933, b: 0.725, a: 1}
  - {r: 0.352, g: 0.533, b: 0, a: 1}
  - {r: 0.976, g: 0.729, b: 0, a: 1}
  - {r: 0.258, g: 0.737, b: 1, a: 1}
  - {r: 0.3349606, g: 0.41509432, b: 0.17817728, a: 1}
  - {r: 0.3679245, g: 0.25098637, b: 0.1440459, a: 1}
  - {r: 0.7075472, g: 0.6099111, b: 0.32373622, a: 1}
  - {r: 0.4736977, g: 0.5943396, b: 0.24390353, a: 1}
